…
deaths <- av %>%
  rowwise() %>%  
  mutate(
    Time = sum(c_across(starts_with("Death")) == "YES", na.rm = TRUE),
    #if they died more than they returned, then the Death column is "YES"
    Returned = if_else( Time > sum(c_across(starts_with("Return")) == "YES", na.rm = TRUE), "NO", "YES"),
    Death = if_else(Returned == "YES", "NO", "YES"))%>%
    #end Death calc  
  ungroup() %>%
  select(-Death1, -Death2, -Death3, -Death4, -Death5, -Return1, -Return2, -Return3, -Return4, -Return5)

deaths
```

    ## # A tibble: 173 × 14
    ##    URL                Name.Alias Appearances Current. Gender Probationary.Introl
    ##    <chr>              <chr>            <int> <chr>    <chr>  <chr>              
    ##  1 http://marvel.wik… "Henry Jo…        1269 YES      MALE   ""                 
    ##  2 http://marvel.wik… "Janet va…        1165 YES      FEMALE ""                 
    ##  3 http://marvel.wik… "Anthony …        3068 YES      MALE   ""                 
    ##  4 http://marvel.wik… "Robert B…        2089 YES      MALE   ""                 
    ##  5 http://marvel.wik… "Thor Odi…        2402 YES      MALE   ""                 
    ##  6 http://marvel.wik… "Richard …         612 YES      MALE   ""                 
    ##  7 http://marvel.wik… "Steven R…        3458 YES      MALE   ""                 
    ##  8 http://marvel.wik… "Clinton …        1456 YES      MALE   ""                 
    ##  9 http://marvel.wik… "Pietro M…         769 YES      MALE   ""                 
    ## 10 http://marvel.wik… "Wanda Ma…        1214 YES      FEMALE ""                 
    ## # ℹ 163 more rows
    ## # ℹ 8 more variables: Full.Reserve.Avengers.Intro <chr>, Year <int>,
    ## #   Years.since.joining <int>, Honorary <chr>, Notes <chr>, Time <int>,
    ## #   Returned <chr>, Death <chr>
…
